results_temp/write.CSV

Model,TBS1052C
Firmware Version,v2015-08-04-prequal4ch70_v1.3

Point Format,Y
Horizontal Units,S
Horizontal Scale,1
Sample Interval,0.008
Filter Frequency,2e+08
Record Length,2000
Gating,0.0% to 100.0%
Probe Attenuation,10
Vertical Units,V
Vertical Offset,0
Vertical Scale,0.02
Label,
TIME,CH1
-8.000e+00,0.0112
-7.992e+00,0.0096
-7.984e+00,0.012
-7.976e+00,0.0128
-7.968e+00,0.0128
-7.960e+00,0.0096
-7.952e+00,0.0136
-7.944e+00,0.0112
-7.936e+00,0.0136
-7.928e+00,0.0128
-7.920e+00,0.0096
-7.912e+00,0.012
-7.904e+00,0.0096
-7.896e+00,0.0104
-7.888e+00,0.0096
-7.880e+00,0.0096
-7.872e+00,0.0112
-7.864e+00,0.0096
-7.856e+00,0.0112
-7.848e+00,0.0096
-7.840e+00,0.0104
-7.832e+00,0.012
-7.824e+00,0.0096
-7.816e+00,0.0104
-7.808e+00,0.0144
-7.800e+00,0.0112
-7.792e+00,0.012
-7.784e+00,0.0128
-7.776e+00,0.012
-7.768e+00,0.0104
-7.760e+00,0.0128
-7.752e+00,0.012
-7.744e+00,0.012
-7.736e+00,0.0104
-7.728e+00,0.012
-7.720e+00,0.0104
-7.712e+00,0.0112
-7.704e+00,0.0112
-7.696e+00,0.0096
-7.688e+00,0.012
-7.680e+00,0.0104
-7.672e+00,0.0104
-7.664e+00,0.012
-7.656e+00,0.0104
-7.648e+00,0.0096
-7.640e+00,0.0128
-7.632e+00,0.0096
-7.624e+00,0.0096
-7.616e+00,0.0104
-7.608e+00,0.0104
-7.600e+00,0.0096
-7.592e+00,0.0104
-7.584e+00,0.0104
-7.576e+00,0.0104
-7.568e+00,0.0104
-7.560e+00,0.0112
-7.552e+00,0.0104
-7.544e+00,0.0096
-7.536e+00,0.0104
-7.528e+00,0.0096
-7.520e+00,0.0104
-7.512e+00,0.012
-7.504e+00,0.012
-7.496e+00,0.0104
-7.488e+00,0.0096
-7.480e+00,0.012
-7.472e+00,0.0112
-7.464e+00,0.0128
-7.456e+00,0.0128
-7.448e+00,0.0112
-7.440e+00,0.0112
-7.432e+00,0.0104
-7.424e+00,0.012
-7.416e+00,0.0112
-7.408e+00,0.0128
-7.400e+00,0.012
-7.392e+00,0.0112
-7.384e+00,0.0104
-7.376e+00,0.0104
-7.368e+00,0.012
-7.360e+00,0.0136
-7.352e+00,0.012
-7.344e+00,0.0112
-7.336e+00,0.0104
-7.328e+00,0.0112
-7.320e+00,0.0096
-7.312e+00,0.0112
-7.304e+00,0.0112
-7.296e+00,0.0112
-7.288e+00,0.0104
-7.280e+00,0.012
-7.272e+00,0.0112
-7.264e+00,0.0104
-7.256e+00,0.0112
-7.248e+00,0.0096
-7.240e+00,0.012
-7.232e+00,0.008
-7.224e+00,0.0112
-7.216e+00,0.0104
-7.208e+00,0.012
-7.200e+00,0.0104
-7.192e+00,0.0104
-7.184e+00,0.0096
-7.176e+00,0.012
-7.168e+00,0.0104
-7.160e+00,0.0112
-7.152e+00,0.0128
-7.144e+00,0.0112
-7.136e+00,0.0112
-7.128e+00,0.0096
-7.120e+00,0.0112
-7.112e+00,0.0112
-7.104e+00,0.0128
-7.096e+00,0.0096
-7.088e+00,0.0104
-7.080e+00,0.012
-7.072e+00,0.0088
-7.064e+00,0.012
-7.056e+00,0.0112
-7.048e+00,0.0104
-7.040e+00,0.0128
-7.032e+00,0.0096
-7.024e+00,0.0112
-7.016e+00,0.0112
-7.008e+00,0.012
-7.000e+00,0.0112
-6.992e+00,0.0104
-6.984e+00,0.0104
-6.976e+00,0.0104
-6.968e+00,0.0112
-6.960e+00,0.0128
-6.952e+00,0.0104
-6.944e+00,0.0128
-6.936e+00,0.0128
-6.928e+00,0.012
-6.920e+00,0.012
-6.912e+00,0.0112
-6.904e+00,0.0128
-6.896e+00,0.012
-6.888e+00,0.0432
-6.880e+00,0.028
-6.872e+00,0.0272
-6.864e+00,0.0544
-6.856e+00,0.0536
-6.848e+00,0.0552
-6.840e+00,0.0552
-6.832e+00,0.0536
-6.824e+00,0.056
-6.816e+00,0.0584
-6.808e+00,0.0584
-6.800e+00,0.0592
-6.792e+00,0.0592
-6.784e+00,0.0568
-6.776e+00,0.0568
-6.768e+00,0.0592
-6.760e+00,0.0576
-6.752e+00,0.0584
-6.744e+00,0.0576
-6.736e+00,0.0584
-6.728e+00,0.0576
-6.720e+00,0.0592
-6.712e+00,0.0592
-6.704e+00,0.0584
-6.696e+00,0.0584
-6.688e+00,0.0584
-6.680e+00,0.0568
-6.672e+00,0.06
-6.664e+00,0.0584
-6.656e+00,0.0552
-6.648e+00,0.0576
-6.640e+00,0.06
-6.632e+00,0.056
-6.624e+00,0.0568
-6.616e+00,0.0584
-6.608e+00,0.056
-6.600e+00,0.0568
-6.592e+00,0.056
-6.584e+00,0.0576
-6.576e+00,0.0592
-6.568e+00,0.0576
-6.560e+00,0.0568
-6.552e+00,0.0584
-6.544e+00,0.0568
-6.536e+00,0.0592
-6.528e+00,0.0568
-6.520e+00,0.0584
-6.512e+00,0.0584
-6.504e+00,0.0568
-6.496e+00,0.0584
-6.488e+00,0.0608
-6.480e+00,0.0616
-6.472e+00,0.06
-6.464e+00,0.0584
-6.456e+00,0.0576
-6.448e+00,0.0592
-6.440e+00,0.0584
-6.432e+00,0.06
-6.424e+00,0.06
-6.416e+00,0.0616
-6.408e+00,0.0592
-6.400e+00,0.0592
-6.392e+00,0.0608
-6.384e+00,0.0592
-6.376e+00,0.056
-6.368e+00,0.0576
-6.360e+00,0.0576
-6.352e+00,0.056
-6.344e+00,0.0552
-6.336e+00,0.0584
-6.328e+00,0.064
-6.320e+00,0.0704
-6.312e+00,0.0712
-6.304e+00,0.0696
-6.296e+00,0.0688
-6.288e+00,0.068
-6.280e+00,0.0696
-6.272e+00,0.0696
-6.264e+00,0.0696
-6.256e+00,0.068
-6.248e+00,0.0728
-6.240e+00,0.068
-6.232e+00,0.068
-6.224e+00,0.068
-6.216e+00,0.0608
-6.208e+00,0.06
-6.200e+00,0.0648
-6.192e+00,0.0696
-6.184e+00,0.064
-6.176e+00,0.0664
-6.168e+00,0.0664
-6.160e+00,0.0648
-6.152e+00,0.0616
-6.144e+00,0.0648
-6.136e+00,0.0624
-6.128e+00,0.0648
-6.120e+00,0.0664
-6.112e+00,0.0632
-6.104e+00,0.0656
-6.096e+00,0.0664
-6.088e+00,0.0656
-6.080e+00,0.0656
-6.072e+00,0.068
-6.064e+00,0.0648
-6.056e+00,0.068
-6.048e+00,0.0616
-6.040e+00,0.0656
-6.032e+00,0.0664
-6.024e+00,0.068
-6.016e+00,0.0656
-6.008e+00,0.0664
-6.000e+00,0.064
-5.992e+00,0.0664
-5.984e+00,0.0616
-5.976e+00,0.0656
-5.968e+00,0.0664
-5.960e+00,0.0608
-5.952e+00,0.0664
-5.944e+00,0.0624
-5.936e+00,0.0664
-5.928e+00,0.0656
-5.920e+00,0.064
-5.912e+00,0.0616
-5.904e+00,0.0632
-5.896e+00,0.0632
-5.888e+00,0.0664
-5.880e+00,0.0632
-5.872e+00,0.0632
-5.864e+00,0.0592
-5.856e+00,0.064
-5.848e+00,0.0656
-5.840e+00,0.0608
-5.832e+00,0.064
-5.824e+00,0.0648
-5.816e+00,0.0616
-5.808e+00,0.0664
-5.800e+00,0.0672
-5.792e+00,0.068
-5.784e+00,0.0664
-5.776e+00,0.0672
-5.768e+00,0.0656
-5.760e+00,0.0664
-5.752e+00,0.0656
-5.744e+00,0.0624
-5.736e+00,0.0648
-5.728e+00,0.0656
-5.720e+00,0.0648
-5.712e+00,0.064
-5.704e+00,0.0656
-5.696e+00,0.064
-5.688e+00,0.0624
-5.680e+00,0.064
-5.672e+00,0.0616
-5.664e+00,0.0632
-5.656e+00,0.0608
-5.648e+00,0.0656
-5.640e+00,0.0656
-5.632e+00,0.0656
-5.624e+00,0.0656
-5.616e+00,0.0672
-5.608e+00,0.0648
-5.600e+00,0.068
-5.592e+00,0.0496
-5.584e+00,0.0696
-5.576e+00,0.076
-5.568e+00,0.0688
-5.560e+00,0.0704
-5.552e+00,0.0712
-5.544e+00,0.0696
-5.536e+00,0.068
-5.528e+00,0.0696
-5.520e+00,0.0696
-5.512e+00,0.0728
-5.504e+00,0.0632
-5.496e+00,0.064
-5.488e+00,0.0608
-5.480e+00,0.0632
-5.472e+00,0.068
-5.464e+00,0.0648
-5.456e+00,0.0624
-5.448e+00,0.0624
-5.440e+00,0.0624
-5.432e+00,0.0616
-5.424e+00,0.0648
-5.416e+00,0.0752
-5.408e+00,0.064
-5.400e+00,0.0632
-5.392e+00,0.0616
-5.384e+00,0.0616
-5.376e+00,0.0624
-5.368e+00,0.0648
-5.360e+00,0.068
-5.352e+00,0.0616
-5.344e+00,0.0608
-5.336e+00,0.0624
-5.328e+00,0.064
-5.320e+00,0.0616
-5.312e+00,0.0624
-5.304e+00,0.0688
-5.296e+00,0.0472
-5.288e+00,0.048
-5.280e+00,0.0472
-5.272e+00,0.0472
-5.264e+00,0.0464
-5.256e+00,0.048
-5.248e+00,0.0488
-5.240e+00,0.0488
-5.232e+00,0.0496
-5.224e+00,0.048
-5.216e+00,0.0472
-5.208e+00,0.048
-5.200e+00,0.0488
-5.192e+00,0.048
-5.184e+00,0.048
-5.176e+00,0.0456
-5.168e+00,0.0488
-5.160e+00,0.048
-5.152e+00,0.0464
-5.144e+00,0.0488
-5.136e+00,0.0472
-5.128e+00,0.0464
-5.120e+00,0.048
-5.112e+00,0.0464
-5.104e+00,0.0464
-5.096e+00,0.0472
-5.088e+00,0.0472
-5.080e+00,0.048
-5.072e+00,0.0456
-5.064e+00,0.0464
-5.056e+00,0.0488
-5.048e+00,0.0488
-5.040e+00,0.0488
-5.032e+00,0.0464
-5.024e+00,0.0464
-5.016e+00,0.0456
-5.008e+00,0.0496
-5.000e+00,0.0472
-4.992e+00,0.0464
-4.984e+00,0.0472
-4.976e+00,0.0488
-4.968e+00,0.0488
-4.960e+00,0.048
-4.952e+00,0.0464
-4.944e+00,0.0488
-4.936e+00,0.0472
-4.928e+00,0.048
-4.920e+00,0.0464
-4.912e+00,0.0472
-4.904e+00,0.0472
-4.896e+00,0.0488
-4.888e+00,0.0464
-4.880e+00,0.048
-4.872e+00,0.0504
-4.864e+00,0.048
-4.856e+00,0.0488
-4.848e+00,0.0464
-4.840e+00,0.0464
-4.832e+00,0.0488
-4.824e+00,0.0464
-4.816e+00,0.0464
-4.808e+00,0.0464
-4.800e+00,0.0568
-4.792e+00,0.056
-4.784e+00,0.0552
-4.776e+00,0.0464
-4.768e+00,0.0472
-4.760e+00,0.048
-4.752e+00,0.0512
-4.744e+00,0.0584
-4.736e+00,0.06
-4.728e+00,0.0552
-4.720e+00,0.0464
-4.712e+00,0.052
-4.704e+00,0.0496
-4.696e+00,0.0504
-4.688e+00,0.0552
-4.680e+00,0.0544
-4.672e+00,0.0568
-4.664e+00,0.0496
-4.656e+00,0.0472
-4.648e+00,0.0512
-4.640e+00,0.0488
-4.632e+00,0.0536
-4.624e+00,0.0592
-4.616e+00,0.0584
-4.608e+00,0.0504
-4.600e+00,0.0488
-4.592e+00,0.0472
-4.584e+00,0.048
-4.576e+00,0.0504
-4.568e+00,0.0568
-4.560e+00,0.0584
-4.552e+00,0.056
-4.544e+00,0.0488
-4.536e+00,0.0456
-4.528e+00,0.0488
-4.520e+00,0.0488
-4.512e+00,0.0592
-4.504e+00,0.0592
-4.496e+00,0.056
-4.488e+00,0.048
-4.480e+00,0.0496
-4.472e+00,0.0504
-4.464e+00,0.0512
-4.456e+00,0.0592
-4.448e+00,0.0576
-4.440e+00,0.056
-4.432e+00,0.0456
-4.424e+00,0.0456
-4.416e+00,0.0488
-4.408e+00,0.048
-4.400e+00,0.0568
-4.392e+00,0.0568
-4.384e+00,0.0576
-4.376e+00,0.0504
-4.368e+00,0.0472
-4.360e+00,0.0488
-4.352e+00,0.048
-4.344e+00,0.0528
-4.336e+00,0.0576
-4.328e+00,0.056
-4.320e+00,0.0544
-4.312e+00,0.0456
-4.304e+00,0.0456
-4.296e+00,0.048
-4.288e+00,0.0496
-4.280e+00,0.048
-4.272e+00,0.048
-4.264e+00,0.0496
-4.256e+00,0.0488
-4.248e+00,0.0464
-4.240e+00,0.0504
-4.232e+00,0.0488
-4.224e+00,0.0456
-4.216e+00,0.0504
-4.208e+00,0.0472
-4.200e+00,0.0488
-4.192e+00,0.048
-4.184e+00,0.0472
-4.176e+00,0.048
-4.168e+00,0.048
-4.160e+00,0.0472
-4.152e+00,0.0472
-4.144e+00,0.048
-4.136e+00,0.0472
-4.128e+00,0.048
-4.120e+00,0.0512
-4.112e+00,0.0488
-4.104e+00,0.0472
-4.096e+00,0.048
-4.088e+00,0.0488
-4.080e+00,0.0496
-4.072e+00,0.0496
-4.064e+00,0.0496
-4.056e+00,0.0472
-4.048e+00,0.0488
-4.040e+00,0.0472
-4.032e+00,0.048
-4.024e+00,0.0496
-4.016e+00,0.0488
-4.008e+00,0.0488
-4.000e+00,0.0472
-3.992e+00,0.0496
-3.984e+00,0.0496
-3.976e+00,0.0488
-3.968e+00,0.0496
-3.960e+00,0.0488
-3.952e+00,0.048
-3.944e+00,0.0496
-3.936e+00,0.0488
-3.928e+00,0.048
-3.920e+00,0.0496
-3.912e+00,0.0472
-3.904e+00,0.048
-3.896e+00,0.048
-3.888e+00,0.0504
-3.880e+00,0.0456
-3.872e+00,0.0472
-3.864e+00,0.0504
-3.856e+00,0.0456
-3.848e+00,0.0472
-3.840e+00,0.0496
-3.832e+00,0.0488
-3.824e+00,0.048
-3.816e+00,0.0472
-3.808e+00,0.0464
-3.800e+00,0.0712
-3.792e+00,0.064
-3.784e+00,0.0688
-3.776e+00,0.064
-3.768e+00,0.06
-3.760e+00,0.064
-3.752e+00,0.0688
-3.744e+00,0.0624
-3.736e+00,0.0696
-3.728e+00,0.0648
-3.720e+00,0.0632
-3.712e+00,0.0632
-3.704e+00,0.064
-3.696e+00,0.0688
-3.688e+00,0.0624
-3.680e+00,0.0704
-3.672e+00,0.0808
-3.664e+00,0.0816
-3.656e+00,0.0792
-3.648e+00,0.0728
-3.640e+00,0.0752
-3.632e+00,0.0768
-3.624e+00,0.08
-3.616e+00,0.0792
-3.608e+00,0.08
-3.600e+00,0.0608
-3.592e+00,0.06
-3.584e+00,0.0624
-3.576e+00,0.0624
-3.568e+00,0.0736
-3.560e+00,0.06
-3.552e+00,0.0632
-3.544e+00,0.0616
-3.536e+00,0.0624
-3.528e+00,0.0672
-3.520e+00,0.0616
-3.512e+00,0.068
-3.504e+00,0.0624
-3.496e+00,0.0608
-3.488e+00,0.0632
-3.480e+00,0.0608
-3.472e+00,0.0608
-3.464e+00,0.0632
-3.456e+00,0.064
-3.448e+00,0.0656
-3.440e+00,0.0624
-3.432e+00,0.0608
-3.424e+00,0.0608
-3.416e+00,0.0608
-3.408e+00,0.064
-3.400e+00,0.0704
-3.392e+00,0.0664
-3.384e+00,0.0632
-3.376e+00,0.0616
-3.368e+00,0.064
-3.360e+00,0.064
-3.352e+00,0.0632
-3.344e+00,0.0656
-3.336e+00,0.0704
-3.328e+00,0.064
-3.320e+00,0.0648
-3.312e+00,0.0632
-3.304e+00,0.064
-3.296e+00,0.0632
-3.288e+00,0.0624
-3.280e+00,0.0688
-3.272e+00,0.0632
-3.264e+00,0.0488
-3.256e+00,0.0456
-3.248e+00,0.0488
-3.240e+00,0.0488
-3.232e+00,0.0504
-3.224e+00,0.0472
-3.216e+00,0.0472
-3.208e+00,0.048
-3.200e+00,0.0472
-3.192e+00,0.0472
-3.184e+00,0.0464
-3.176e+00,0.0464
-3.168e+00,0.048
-3.160e+00,0.048
-3.152e+00,0.048
-3.144e+00,0.0496
-3.136e+00,0.0488
-3.128e+00,0.0464
-3.120e+00,0.0488
-3.112e+00,0.0496
-3.104e+00,0.0496
-3.096e+00,0.048
-3.088e+00,0.0488
-3.080e+00,0.0496
-3.072e+00,0.0472
-3.064e+00,0.048
-3.056e+00,0.0472
-3.048e+00,0.048
-3.040e+00,0.0488
-3.032e+00,0.048
-3.024e+00,0.0472
-3.016e+00,0.048
-3.008e+00,0.048
-3.000e+00,0.0472
-2.992e+00,0.048
-2.984e+00,0.0496
-2.976e+00,0.048
-2.968e+00,0.048
-2.960e+00,0.048
-2.952e+00,0.0448
-2.944e+00,0.0488
-2.936e+00,0.048
-2.928e+00,0.0472
-2.920e+00,0.0488
-2.912e+00,0.0456
-2.904e+00,0.0472
-2.896e+00,0.0496
-2.888e+00,0.0472
-2.880e+00,0.0464
-2.872e+00,0.0488
-2.864e+00,0.048
-2.856e+00,0.0496
-2.848e+00,0.048
-2.840e+00,0.048
-2.832e+00,0.048
-2.824e+00,0.0496
-2.816e+00,0.0472
-2.808e+00,0.0496
-2.800e+00,0.0472
-2.792e+00,0.0472
-2.784e+00,0.048
-2.776e+00,0.0456
-2.768e+00,0.0472
-2.760e+00,0.0608
-2.752e+00,0.0568
-2.744e+00,0.0472
-2.736e+00,0.048
-2.728e+00,0.0488
-2.720e+00,0.0488
-2.712e+00,0.0552
-2.704e+00,0.0584
-2.696e+00,0.056
-2.688e+00,0.0504
-2.680e+00,0.0464
-2.672e+00,0.0488
-2.664e+00,0.0464
-2.656e+00,0.0528
-2.648e+00,0.0592
-2.640e+00,0.056
-2.632e+00,0.052
-2.624e+00,0.0472
-2.616e+00,0.0464
-2.608e+00,0.0504
-2.600e+00,0.0504
-2.592e+00,0.0568
-2.584e+00,0.0568
-2.576e+00,0.0552
-2.568e+00,0.0464
-2.560e+00,0.0472
-2.552e+00,0.0488
-2.544e+00,0.0488
-2.536e+00,0.0592
-2.528e+00,0.0592
-2.520e+00,0.056
-2.512e+00,0.0472
-2.504e+00,0.0472
-2.496e+00,0.0472
-2.488e+00,0.0496
-2.480e+00,0.0552
-2.472e+00,0.0592
-2.464e+00,0.0544
-2.456e+00,0.048
-2.448e+00,0.0488
-2.440e+00,0.048
-2.432e+00,0.048
-2.424e+00,0.052
-2.416e+00,0.0592
-2.408e+00,0.0568
-2.400e+00,0.052
-2.392e+00,0.0464
-2.384e+00,0.0448
-2.376e+00,0.0488
-2.368e+00,0.0528
-2.360e+00,0.0592
-2.352e+00,0.0576
-2.344e+00,0.052
-2.336e+00,0.0464
-2.328e+00,0.0488
-2.320e+00,0.0488
-2.312e+00,0.0496
-2.304e+00,0.0568
-2.296e+00,0.0592
-2.288e+00,0.0544
-2.280e+00,0.0472
-2.272e+00,0.0456
-2.264e+00,0.0472
-2.256e+00,0.0488
-2.248e+00,0.0488
-2.240e+00,0.048
-2.232e+00,0.0496
-2.224e+00,0.0472
-2.216e+00,0.048
-2.208e+00,0.0488
-2.200e+00,0.0504
-2.192e+00,0.0464
-2.184e+00,0.0496
-2.176e+00,0.048
-2.168e+00,0.0504
-2.160e+00,0.048
-2.152e+00,0.0488
-2.144e+00,0.048
-2.136e+00,0.0464
-2.128e+00,0.0472
-2.120e+00,0.0472
-2.112e+00,0.0496
-2.104e+00,0.0464
-2.096e+00,0.048
-2.088e+00,0.048
-2.080e+00,0.0496
-2.072e+00,0.0472
-2.064e+00,0.0456
-2.056e+00,0.0472
-2.048e+00,0.0464
-2.040e+00,0.0472
-2.032e+00,0.0456
-2.024e+00,0.048
-2.016e+00,0.044
-2.008e+00,0.0456
-2.000e+00,0.0472
-1.992e+00,0.048
-1.984e+00,0.048
-1.976e+00,0.048
-1.968e+00,0.0456
-1.960e+00,0.0488
-1.952e+00,0.048
-1.944e+00,0.048
-1.936e+00,0.0472
-1.928e+00,0.0472
-1.920e+00,0.0496
-1.912e+00,0.0496
-1.904e+00,0.0464
-1.896e+00,0.0464
-1.888e+00,0.0464
-1.880e+00,0.048
-1.872e+00,0.0472
-1.864e+00,0.0504
-1.856e+00,0.0464
-1.848e+00,0.048
-1.840e+00,0.0464
-1.832e+00,0.0456
-1.824e+00,0.048
-1.816e+00,0.0472
-1.808e+00,0.048
-1.800e+00,0.0488
-1.792e+00,0.0496
-1.784e+00,0.0472
-1.776e+00,0.0456
-1.768e+00,0.0496
-1.760e+00,0.0608
-1.752e+00,0.0696
-1.744e+00,0.0672
-1.736e+00,0.064
-1.728e+00,0.0616
-1.720e+00,0.0672
-1.712e+00,0.0624
-1.704e+00,0.0648
-1.696e+00,0.0624
-1.688e+00,0.0632
-1.680e+00,0.0712
-1.672e+00,0.0632
-1.664e+00,0.068
-1.656e+00,0.0608
-1.648e+00,0.0624
-1.640e+00,0.0656
-1.632e+00,0.0632
-1.624e+00,0.0672
-1.616e+00,0.0632
-1.608e+00,0.0624
-1.600e+00,0.0648
-1.592e+00,0.0624
-1.584e+00,0.0704
-1.576e+00,0.0616
-1.568e+00,0.0712
-1.560e+00,0.0624
-1.552e+00,0.072
-1.544e+00,0.064
-1.536e+00,0.064
-1.528e+00,0.0608
-1.520e+00,0.0656
-1.512e+00,0.0768
-1.504e+00,0.0808
-1.496e+00,0.0808
-1.488e+00,0.0808
-1.480e+00,0.0776
-1.472e+00,0.0784
-1.464e+00,0.0792
-1.456e+00,0.0816
-1.448e+00,0.0736
-1.440e+00,0.0632
-1.432e+00,0.0736
-1.424e+00,0.064
-1.416e+00,0.0616
-1.408e+00,0.0712
-1.400e+00,0.0624
-1.392e+00,0.0664
-1.384e+00,0.0624
-1.376e+00,0.064
-1.368e+00,0.0624
-1.360e+00,0.0624
-1.352e+00,0.0688
-1.344e+00,0.0624
-1.336e+00,0.0688
-1.328e+00,0.064
-1.320e+00,0.0608
-1.312e+00,0.0616
-1.304e+00,0.0624
-1.296e+00,0.0696
-1.288e+00,0.0616
-1.280e+00,0.0632
-1.272e+00,0.0616
-1.264e+00,0.0616
-1.256e+00,0.0704
-1.248e+00,0.0624
-1.240e+00,0.068
-1.232e+00,0.0616
-1.224e+00,0.0648
-1.216e+00,0.0696
-1.208e+00,0.064
-1.200e+00,0.0656
-1.192e+00,0.0688
-1.184e+00,0.0624
-1.176e+00,0.0624
-1.168e+00,0.0616
-1.160e+00,0.0624
-1.152e+00,0.0632
-1.144e+00,0.0688
-1.136e+00,0.0688
-1.128e+00,0.0624
-1.120e+00,0.064
-1.112e+00,0.064
-1.104e+00,0.0616
-1.096e+00,0.0624
-1.088e+00,0.0632
-1.080e+00,0.0704
-1.072e+00,0.0624
-1.064e+00,0.0616
-1.056e+00,0.0616
-1.048e+00,0.0616
-1.040e+00,0.0632
-1.032e+00,0.0616
-1.024e+00,0.0688
-1.016e+00,0.0664
-1.008e+00,0.0624
-1.000e+00,0.0656
-9.920e-01,0.0592
-9.840e-01,0.0488
-9.760e-01,0.0488
-9.680e-01,0.0512
-9.600e-01,0.048
-9.520e-01,0.0488
-9.440e-01,0.0488
-9.360e-01,0.0472
-9.280e-01,0.048
-9.200e-01,0.0488
-9.120e-01,0.0472
-9.040e-01,0.0488
-8.960e-01,0.048
-8.880e-01,0.0488
-8.800e-01,0.0472
-8.720e-01,0.048
-8.640e-01,0.0464
-8.560e-01,0.0496
-8.480e-01,0.0504
-8.400e-01,0.0488
-8.320e-01,0.0464
-8.240e-01,0.0464
-8.160e-01,0.0496
-8.080e-01,0.0464
-8.000e-01,0.0456
-7.920e-01,0.048
-7.840e-01,0.0472
-7.760e-01,0.044
-7.680e-01,0.0496
-7.600e-01,0.0448
-7.520e-01,0.0464
-7.440e-01,0.0496
-7.360e-01,0.048
-7.280e-01,0.0488
-7.200e-01,0.0472
-7.120e-01,0.0488
-7.040e-01,0.0472
-6.960e-01,0.0472
-6.880e-01,0.0464
-6.800e-01,0.0472
-6.720e-01,0.048
-6.640e-01,0.0488
-6.560e-01,0.048
-6.480e-01,0.0496
-6.400e-01,0.0472
-6.320e-01,0.0496
-6.240e-01,0.0488
-6.160e-01,0.0496
-6.080e-01,0.0456
-6.000e-01,0.0472
-5.920e-01,0.0488
-5.840e-01,0.048
-5.760e-01,0.0472
-5.680e-01,0.052
-5.600e-01,0.0464
-5.520e-01,0.0472
-5.440e-01,0.0472
-5.360e-01,0.048
-5.280e-01,0.0464
-5.200e-01,0.0496
-5.120e-01,0.0488
-5.040e-01,0.0456
-4.960e-01,0.0496
-4.880e-01,0.048
-4.800e-01,0.0488
-4.720e-01,0.0592
-4.640e-01,0.0568
-4.560e-01,0.0536
-4.480e-01,0.0448
-4.400e-01,0.048
-4.320e-01,0.044
-4.240e-01,0.0496
-4.160e-01,0.0576
-4.080e-01,0.0584
-4.000e-01,0.0568
-3.920e-01,0.0472
-3.840e-01,0.0464
-3.760e-01,0.0472
-3.680e-01,0.0512
-3.600e-01,0.0552
-3.520e-01,0.0592
-3.440e-01,0.0568
-3.360e-01,0.0512
-3.280e-01,0.0496
-3.200e-01,0.0488
-3.120e-01,0.0488
-3.040e-01,0.052
-2.960e-01,0.0584
-2.880e-01,0.0576
-2.800e-01,0.0552
-2.720e-01,0.0448
-2.640e-01,0.048
-2.560e-01,0.0472
-2.480e-01,0.0512
-2.400e-01,0.0568
-2.320e-01,0.0576
-2.240e-01,0.0552
-2.160e-01,0.0496
-2.080e-01,0.0496
-2.000e-01,0.0488
-1.920e-01,0.0512
-1.840e-01,0.0576
-1.760e-01,0.0568
-1.680e-01,0.0544
-1.600e-01,0.048
-1.520e-01,0.0472
-1.440e-01,0.0488
-1.360e-01,0.0496
-1.280e-01,0.0568
-1.200e-01,0.06
-1.120e-01,0.056
-1.040e-01,0.0496
-9.600e-02,0.048
-8.800e-02,0.0488
-8.000e-02,0.0512
-7.200e-02,0.0552
-6.400e-02,0.0568
-5.600e-02,0.06
-4.800e-02,0.052
-4.000e-02,0.0488
-3.200e-02,0.0504
-2.400e-02,0.0504
-1.600e-02,0.0544
-8.000e-03,0.06
7.050e-15,0.0576
8.000e-03,0.0536
1.600e-02,0.0488
2.400e-02,0.0488
3.200e-02,0.0464
4.000e-02,0.0456
4.800e-02,0.0464
5.600e-02,0.048
6.400e-02,0.0488
7.200e-02,0.048
8.000e-02,0.0456
8.800e-02,0.0456
9.600e-02,0.0472
1.040e-01,0.048
1.120e-01,0.048
1.200e-01,0.048
1.280e-01,0.0488
1.360e-01,0.048
1.440e-01,0.0472
1.520e-01,0.048
1.600e-01,0.048
1.680e-01,0.048
1.760e-01,0.0488
1.840e-01,0.048
1.920e-01,0.0464
2.000e-01,0.044
2.080e-01,0.048
2.160e-01,0.0496
2.240e-01,0.048
2.320e-01,0.0464
2.400e-01,0.0496
2.480e-01,0.0464
2.560e-01,0.048
2.640e-01,0.0464
2.720e-01,0.0464
2.800e-01,0.0464
2.880e-01,0.0488
2.960e-01,0.0496
3.040e-01,0.0472
3.120e-01,0.0456
3.200e-01,0.0488
3.280e-01,0.0472
3.360e-01,0.0504
3.440e-01,0.048
3.520e-01,0.0448
3.600e-01,0.0496
3.680e-01,0.0488
3.760e-01,0.0472
3.840e-01,0.048
3.920e-01,0.0464
4.000e-01,0.0496
4.080e-01,0.0488
4.160e-01,0.0448
4.240e-01,0.0488
4.320e-01,0.048
4.400e-01,0.0472
4.480e-01,0.0472
4.560e-01,0.0488
4.640e-01,0.0456
4.720e-01,0.0472
4.800e-01,0.0472
4.880e-01,0.048
4.960e-01,0.048
5.040e-01,0.0472
5.120e-01,0.0648
5.200e-01,0.0704
5.280e-01,0.0616
5.360e-01,0.0632
5.440e-01,0.064
5.520e-01,0.0696
5.600e-01,0.0632
5.680e-01,0.0712
5.760e-01,0.0624
5.840e-01,0.0608
5.920e-01,0.0608
6.000e-01,0.0608
6.080e-01,0.0688
6.160e-01,0.064
6.240e-01,0.0632
6.320e-01,0.0624
6.400e-01,0.0632
6.480e-01,0.0696
6.560e-01,0.0792
6.640e-01,0.0784
6.720e-01,0.0792
6.800e-01,0.0744
6.880e-01,0.076
6.960e-01,0.0784
7.040e-01,0.0792
7.120e-01,0.08
7.200e-01,0.0808
7.280e-01,0.0696
7.360e-01,0.064
7.440e-01,0.0632
7.520e-01,0.0624
7.600e-01,0.0632
7.680e-01,0.0744
7.760e-01,0.0624
7.840e-01,0.0624
7.920e-01,0.0608
8.000e-01,0.064
8.080e-01,0.0712
8.160e-01,0.064
8.240e-01,0.0712
8.320e-01,0.064
8.400e-01,0.0688
8.480e-01,0.0648
8.560e-01,0.0632
8.640e-01,0.0712
8.720e-01,0.0616
8.800e-01,0.0736
8.880e-01,0.0632
8.960e-01,0.0632
9.040e-01,0.0712
9.120e-01,0.0632
